Evaluate Trending Models • trendeval
…
all_dat <- bind_rows(pathways_recent, new_dat)

out <- 
  best_by_rmse %>%  
  fit(pathways_recent) %>% 
  predict(all_dat) %>%  
  as_tibble()

out
#> # A tibble: 71 x 9
#>    date         day weekday   count estimate lower_ci upper_ci lower_pi upper_pi
#>    <date>     <int> <fct>     <int>    <dbl>    <dbl>    <dbl>    <dbl>    <dbl>
#>  1 2020-04-02    15 rest_of_… 71917   54614.   49046.   60813.    33412    80753
#>  2 2020-04-03    16 rest_of_… 63365   52856.   47603.   58689.    33201    76164
#>  3 2020-04-04    17 weekend   52412   51155.   46200.   56641.    32670    73787
#>  4 2020-04-05    18 weekend   54014   49509.   44838.   54666.    31608    71643
#>  5 2020-04-06    19 monday    78996   47915.   43515.   52761.    29932    69786
#>  6 2020-04-07    20 rest_of_… 62026   46373.   42229.   50925.    29923    69140
#>  7 2020-04-08    21 rest_of_… 51692   44881.   40979.   49155.    28976    65417
#>  8 2020-04-09    22 rest_of_… 40797   43437.   39765.   47448.    27354    64013
#>  9 2020-04-10    23 rest_of_… 33946   42039.   38585.   45802.    26546    60591
#> 10 2020-04-11    24 weekend   32269   40686.   37437.   44216.    25768    58520
#> # … with 61 more rows
…
