Resampling approach for model evaluation — evaluate_resampling • trendeval
…
    Examples

x <- rnorm(100, mean = 0)
y <- rpois(n = 100, lambda = exp(x + 1))
dat <- data.frame(x = x, y = y)
model <- trending::glm_model(y ~ x, poisson)
models <- list(
  poisson_model = trending::glm_model(y ~ x, poisson),
  linear_model = trending::lm_model(y ~ x)
)

evaluate_resampling(model, dat)
#> # A tibble: 100 × 9
#>    metric result warnings errors model      fitting_wa…¹ fitti…² predi…³ predi…⁴
#>  * <chr>   <dbl> <list>   <list> <list>     <list>       <list>  <list>  <list> 
#>  1 rmse   0.0355 <NULL>   <NULL> <glm_trn_> <NULL>       <NULL>  <NULL>  <NULL> 
#>  2 rmse   0.179  <NULL>   <NULL> <glm_trn_> <NULL>       <NULL>  <NULL>  <NULL> 
#>  3 rmse   0.958  <NULL>   <NULL> <glm_trn_> <NULL>       <NULL>  <NULL>  <NULL> 
#>  4 rmse   0.687  <NULL>   <NULL> <glm_trn_> <NULL>       <NULL>  <NULL>  <NULL> 
#>  5 rmse   0.313  <NULL>   <NULL> <glm_trn_> <NULL>       <NULL>  <NULL>  <NULL> 
#>  6 rmse   2.17   <NULL>   <NULL> <glm_trn_> <NULL>       <NULL>  <NULL>  <NULL> 
#>  7 rmse   1.16   <NULL>   <NULL> <glm_trn_> <NULL>       <NULL>  <NULL>  <NULL> 
#>  8 rmse   1.22   <NULL>   <NULL> <glm_trn_> <NULL>       <NULL>  <NULL>  <NULL> 
#>  9 rmse   0.645  <NULL>   <NULL> <glm_trn_> <NULL>       <NULL>  <NULL>  <NULL> 
#> 10 rmse   2.25   <NULL>   <NULL> <glm_trn_> <NULL>       <NULL>  <NULL>  <NULL> 
#> # … with 90 more rows, and abbreviated variable names
#> #   ¹​fitting_warnings$warnings, ²​fitting_errors$errors,
#> #   ³​predicting_warnings$warnings, ⁴​predicting_errors$errors
evaluate_resampling(models, dat)
#> # A tibble: 200 × 10
#>    model_name    metric result warni…¹ errors model      fitti…² fitti…³ predi…⁴
#>    <chr>         <chr>   <dbl> <list>  <list> <list>     <list>  <list>  <list> 
#>  1 poisson_model rmse    1.22  <NULL>  <NULL> <glm_trn_> <NULL>  <NULL>  <NULL> 
#>  2 poisson_model rmse    0.639 <NULL>  <NULL> <glm_trn_> <NULL>  <NULL>  <NULL> 
#>  3 poisson_model rmse    1.57  <NULL>  <NULL> <glm_trn_> <NULL>  <NULL>  <NULL> 
#>  4 poisson_model rmse    3.25  <NULL>  <NULL> <glm_trn_> <NULL>  <NULL>  <NULL> 
#>  5 poisson_model rmse    0.841 <NULL>  <NULL> <glm_trn_> <NULL>  <NULL>  <NULL> 
#>  6 poisson_model rmse    0.236 <NULL>  <NULL> <glm_trn_> <NULL>  <NULL>  <NULL> 
#>  7 poisson_model rmse    3.58  <NULL>  <NULL> <glm_trn_> <NULL>  <NULL>  <NULL> 
#>  8 poisson_model rmse    2.25  <NULL>  <NULL> <glm_trn_> <NULL>  <NULL>  <NULL> 
#>  9 poisson_model rmse    1.61  <NULL>  <NULL> <glm_trn_> <NULL>  <NULL>  <NULL> 
#> 10 poisson_model rmse    1.43  <NULL>  <NULL> <glm_trn_> <NULL>  <NULL>  <NULL> 
#> # … with 190 more rows, 1 more variable: predicting_errors <tibble[,1]>, and
#> #   abbreviated variable names ¹​warnings, ²​fitting_warnings$warnings,
#> #   ³​fitting_errors$errors, ⁴​predicting_warnings$warnings
…
